Data Analysis Project
…
Analysis (100 points):

Come up with at least three interesting insights into the dataset. Insights can be something like The Northeast has more private colleges than the West or Cereals on the first shelf tend to be more sugary. Support each of your insights with at least one plot, with appropriate summary calculations, and with a clear discussion.

What countrys suicide rate decreased the most since 1987?

# get the average suicide rate in each country
suicide %>%
  filter(age == "5-14 years") %>%
  group_by(country) %>%
  summarise(avg = sum(suicides_no) / sum(population)) %>%
  arrange(desc(avg))

## # A tibble: 100 x 2
##    country                  avg
##    <chr>                  <dbl>
##  1 Kiribati           0.0000268
##  2 Cabo Verde         0.0000263
##  3 Kazakhstan         0.0000256
##  4 Suriname           0.0000236
##  5 Guyana             0.0000200
##  6 Sri Lanka          0.0000188
##  7 Russian Federation 0.0000181
##  8 Kyrgyzstan         0.0000165
##  9 Estonia            0.0000145
## 10 Lithuania          0.0000125
## #  with 90 more rows
…
